Input matrix, including right side of the equations:
1.000		0.000		0.000		1.000		0.000		0.000		
0.000		1.000		0.000		0.000		1.000		0.000		
0.000		0.000		1.000		0.000		0.000		1.000		

Inverse matrix computed from input matrix:
1.000		0.000		0.000		
0.000		1.000		0.000		
0.000		0.000		1.000		

Needed 0 ms to finish.
