Input matrix, including right side of the equations:
1.000		7.000		6.000		7.000		1.000		9.000		1.000		0.000		0.000		0.000		0.000		0.000		
4.000		4.000		5.000		6.000		3.000		8.000		0.000		1.000		0.000		0.000		0.000		0.000		
2.000		4.000		6.000		2.000		5.000		6.000		0.000		0.000		1.000		0.000		0.000		0.000		
3.000		5.000		6.000		8.000		2.000		3.000		0.000		0.000		0.000		1.000		0.000		0.000		
5.000		8.000		1.000		5.000		0.000		5.000		0.000		0.000		0.000		0.000		1.000		0.000		
6.000		5.000		1.000		9.000		0.000		3.000		0.000		0.000		0.000		0.000		0.000		1.000		

Inverse matrix computed from input matrix:
-0.405		0.603		-0.418		0.344		0.359		-0.499		
0.106		-0.330		0.202		-0.062		0.065		0.112		
-0.304		0.578		-0.513		0.567		0.331		-0.723		
0.219		-0.329		0.237		-0.208		-0.304		0.461		
0.262		-0.706		0.773		-0.505		-0.440		0.788		
0.077		0.139		-0.038		-0.150		-0.026		0.004		

Needed 0 ms to finish.
